%YAML 1.1
%TAG !u! tag:unity3d.com,2011:
--- !u!65 &4291345478665266043
BoxCollider:
  m_ObjectHideFlags: 0
  m_CorrespondingSourceObject: {fileID: 0}
  m_PrefabInstance: {fileID: 0}
  m_PrefabAsset: {fileID: 0}
  m_GameObject: {fileID: 7513758406415864139}
  m_Material: {fileID: 0}
  m_IsTrigger: 1
  m_Enabled: 1
  serializedVersion: 2
  m_Size: {x: 0.63141435, y: 1.5569824, z: 0.5915394}
  m_Center: {x: -0.0031626415, y: 0.7526849, z: 0.038529646}
--- !u!114 &-86697891249858752
MonoBehaviour:
  m_ObjectHideFlags: 0
  m_CorrespondingSourceObject: {fileID: 0}
  m_PrefabInstance: {fileID: 0}
  m_PrefabAsset: {fileID: 0}
  m_GameObject: {fileID: 7513758406415864139}
  m_Enabled: 1
  m_EditorHideFlags: 0
  m_Script: {fileID: 11500000, guid: f7ce42b5473b59f49948eb6b1a0fad1d, type: 3}
  m_Name: 
  m_EditorClassIdentifier: 
  birmi: 0
  x: 0
  y: 0
  z: 0
  BoomPrefab: {fileID: 2904345661706201265, guid: 96f59aa007f58774f8d2097d19f9ff2e, type: 3}
  SonSecilen: {fileID: 0}
  anim: {fileID: 0}
--- !u!1001 &1117391681659530587
PrefabInstance:
  m_ObjectHideFlags: 0
  serializedVersion: 2
  m_Modification:
    m_TransformParent: {fileID: 0}
    m_Modifications:
    - target: {fileID: 7478225697108807222, guid: 6fb37f825ee63264b9c2600bf1a52006, type: 3}
      propertyPath: m_Controller
      value: 
      objectReference: {fileID: 9100000, guid: 7b179fdccccb0ae429c112c32759ae23, type: 2}
    - target: {fileID: 7478225697115775088, guid: 6fb37f825ee63264b9c2600bf1a52006, type: 3}
      propertyPath: m_RootOrder
      value: 0
      objectReference: {fileID: 0}
    - target: {fileID: 7478225697115775088, guid: 6fb37f825ee63264b9c2600bf1a52006, type: 3}
      propertyPath: m_LocalScale.x
      value: 25
      objectReference: {fileID: 0}
    - target: {fileID: 7478225697115775088, guid: 6fb37f825ee63264b9c2600bf1a52006, type: 3}
      propertyPath: m_LocalScale.y
      value: 25
      objectReference: {fileID: 0}
    - target: {fileID: 7478225697115775088, guid: 6fb37f825ee63264b9c2600bf1a52006, type: 3}
      propertyPath: m_LocalScale.z
      value: 25
      objectReference: {fileID: 0}
    - target: {fileID: 7478225697115775088, guid: 6fb37f825ee63264b9c2600bf1a52006, type: 3}
      propertyPath: m_LocalPosition.x
      value: -0
      objectReference: {fileID: 0}
    - target: {fileID: 7478225697115775088, guid: 6fb37f825ee63264b9c2600bf1a52006, type: 3}
      propertyPath: m_LocalPosition.y
      value: 0
      objectReference: {fileID: 0}
    - target: {fileID: 7478225697115775088, guid: 6fb37f825ee63264b9c2600bf1a52006, type: 3}
      propertyPath: m_LocalPosition.z
      value: 0
      objectReference: {fileID: 0}
    - target: {fileID: 7478225697115775088, guid: 6fb37f825ee63264b9c2600bf1a52006, type: 3}
      propertyPath: m_LocalRotation.w
      value: 1
      objectReference: {fileID: 0}
    - target: {fileID: 7478225697115775088, guid: 6fb37f825ee63264b9c2600bf1a52006, type: 3}
      propertyPath: m_LocalRotation.x
      value: 0
      objectReference: {fileID: 0}
    - target: {fileID: 7478225697115775088, guid: 6fb37f825ee63264b9c2600bf1a52006, type: 3}
      propertyPath: m_LocalRotation.y
      value: 0
      objectReference: {fileID: 0}
    - target: {fileID: 7478225697115775088, guid: 6fb37f825ee63264b9c2600bf1a52006, type: 3}
      propertyPath: m_LocalRotation.z
      value: 0
      objectReference: {fileID: 0}
    - target: {fileID: 7478225697115775088, guid: 6fb37f825ee63264b9c2600bf1a52006, type: 3}
      propertyPath: m_LocalEulerAnglesHint.x
      value: 0
      objectReference: {fileID: 0}
    - target: {fileID: 7478225697115775088, guid: 6fb37f825ee63264b9c2600bf1a52006, type: 3}
      propertyPath: m_LocalEulerAnglesHint.y
      value: 0
      objectReference: {fileID: 0}
    - target: {fileID: 7478225697115775088, guid: 6fb37f825ee63264b9c2600bf1a52006, type: 3}
      propertyPath: m_LocalEulerAnglesHint.z
      value: 0
      objectReference: {fileID: 0}
    - target: {fileID: 7478225697116208144, guid: 6fb37f825ee63264b9c2600bf1a52006, type: 3}
      propertyPath: m_Name
      value: Kombat Variant
      objectReference: {fileID: 0}
    - target: {fileID: 7478225697116208144, guid: 6fb37f825ee63264b9c2600bf1a52006, type: 3}
      propertyPath: m_TagString
      value: Player
      objectReference: {fileID: 0}
    m_RemovedComponents: []
  m_SourcePrefab: {fileID: 100100000, guid: 6fb37f825ee63264b9c2600bf1a52006, type: 3}
--- !u!1 &7513758406415864139 stripped
GameObject:
  m_CorrespondingSourceObject: {fileID: 7478225697116208144, guid: 6fb37f825ee63264b9c2600bf1a52006, type: 3}
  m_PrefabInstance: {fileID: 1117391681659530587}
  m_PrefabAsset: {fileID: 0}
